An introduction to multidplyr
…
Add data

There are two ways to get data to the workers in cluster:

partition() a data frame that already loaded in the interactive process.

Load a different subset of the data in each worker.

partition()

partition() is useful if you have a single in-memory data frame. For example, take nycflights13::flights. This dataset contains information for about ~300,000 flights departing New York City in 2013. We group it by destination, then partition it:

flights1 <- flights %>% group_by(dest) %>% partition(cluster)
flights1
#> Source: party_df [336,776 x 19]
#> Groups: dest
#> Shards: 2 [166,251--170,525 rows]
#> 
#>    year month   day dep_time sched_dep_time dep_delay arr_time sched_arr_time
#>   <int> <int> <int>    <int>          <int>     <dbl>    <int>          <int>
#> 1  2013     1     1      557            600        -3      709            723
#> 2  2013     1     1      557            600        -3      838            846
#> 3  2013     1     1      558            600        -2      849            851
#> 4  2013     1     1      558            600        -2      853            856
#> 5  2013     1     1      559            559         0      702            706
#> 6  2013     1     1      559            600        -1      854            902
#> # … with 336,770 more rows, and 11 more variables: arr_delay <dbl>,
#> #   carrier <chr>, flight <int>, tailnum <chr>, origin <chr>, dest <chr>,
#> #   air_time <dbl>, distance <dbl>, hour <dbl>, minute <dbl>, time_hour <dttm>
…
Now we find all the files in the directory, and divide them up so that each worker gets (approximately) the same number of pieces:

files <- dir(path, full.names = TRUE)
cluster_assign_partition(cluster, files = files)

Then we read in the files on each worker and use party_df() to create a partitioned dataframe:

cluster_send(cluster, flights2 <- vroom::vroom(files))

flights2 <- party_df(cluster, "flights2")
flights2
#> Source: party_df [336,776 x 18]
#> Shards: 2 [166,158--170,618 rows]
#> 
#>    year   day dep_time sched_dep_time dep_delay arr_time sched_arr_time
#>   <dbl> <dbl>    <dbl>          <dbl>     <dbl>    <dbl>          <dbl>
#> 1  2013     1      517            515         2      830            819
#> 2  2013     1      533            529         4      850            830
#> 3  2013     1      542            540         2      923            850
#> 4  2013     1      544            545        -1     1004           1022
#> 5  2013     1      554            600        -6      812            837
#> 6  2013     1      554            558        -4      740            728
#> # … with 336,770 more rows, and 11 more variables: arr_delay <dbl>,
#> #   carrier <chr>, flight <dbl>, tailnum <chr>, origin <chr>, dest <chr>,
#> #   air_time <dbl>, distance <dbl>, hour <dbl>, minute <dbl>, time_hour <dttm>

dplyr verbs

Once you have a partitioned data frame, you can operate on it with the usual dplyr verbs. To bring the data back to the interactive process, use collect():

flights1 %>% 
  summarise(dep_delay = mean(dep_delay, na.rm = TRUE)) %>% 
  collect()
#> # A tibble: 105 × 2
#>    dest  dep_delay
#>    <chr>     <dbl>
#>  1 ABQ       13.7 
#>  2 ALB       23.6 
#>  3 AUS       13.0 
#>  4 AVL        8.19
#>  5 BDL       17.7 
#>  6 BGR       19.5 
#>  7 BHM       29.7 
#>  8 BNA       16.0 
#>  9 BOS        8.73
#> 10 BZN       11.5 
#> # … with 95 more rows
…
common_dest <- flights %>% 
  semi_join(daily_flights, by = "dest") %>% 
  mutate(yday = lubridate::yday(ISOdate(year, month, day))) %>% 
  group_by(dest)

nrow(common_dest)
#> [1] 332942

That leaves us with ~332,000 observations. Let’s partition this smaller dataset:

by_dest <- common_dest %>% partition(cluster)
by_dest
#> Source: party_df [332,942 x 20]
#> Groups: dest
#> Shards: 2 [164,539--168,403 rows]
#> 
#>    year month   day dep_time sched_dep_time dep_delay arr_time sched_arr_time
#>   <int> <int> <int>    <int>          <int>     <dbl>    <int>          <int>
#> 1  2013     1     1      517            515         2      830            819
#> 2  2013     1     1      533            529         4      850            830
#> 3  2013     1     1      542            540         2      923            850
#> 4  2013     1     1      554            558        -4      740            728
#> 5  2013     1     1      555            600        -5      913            854
#> 6  2013     1     1      558            600        -2      753            745
#> # … with 332,936 more rows, and 12 more variables: arr_delay <dbl>,
#> #   carrier <chr>, flight <int>, tailnum <chr>, origin <chr>, dest <chr>,
#> #   air_time <dbl>, distance <dbl>, hour <dbl>, minute <dbl>, time_hour <dttm>,
#> #   yday <dbl>
…
